{
    "results":[
               {
               "vote_count":1048,
               "id":353081,
               "video":false,
               "vote_average":7.4,
               "title":"Mission: Impossible - Fallout",
               "popularity":137.94,
               "poster_path":"\/AkJQpZp9WoNdj7pLYSj1L0RcMMN.jpg",
               "original_language":"en",
               "original_title":"Mission: Impossible - Fallout",
               "genre_ids":[
                            12,
                            28,
                            53
                            ],
               "backdrop_path":"\/5qxePyMYDisLe8rJiBYX8HKEyv2.jpg",
               "adult":false,
               "overview":"When an IMF mission ends badly, the world is faced with dire consequences. As Ethan Hunt takes it upon himself to fulfil his original briefing, the CIA begin to question his loyalty and his motives. The IMF team find themselves in a race against time, hunted by assassins while trying to prevent a global catastrophe.",
               "release_date":"2018-07-25"
               },
               {
               "vote_count":27,
               "id":399360,
               "video":false,
               "vote_average":5.6,
               "title":"Alpha",
               "popularity":74.451,
               "poster_path":"\/afdZAIcAQscziqVtsEoh2PwsYTW.jpg",
               "original_language":"en",
               "original_title":"Alpha",
               "genre_ids":[
                            53,
                            12,
                            18
                            ],
               "backdrop_path":"\/nKMeTdm72LQ756Eq20uTjF1zDXu.jpg",
               "adult":false,
               "overview":"After a hunting expedition goes awry, a young caveman struggles against the elements to find his way home.",
               "release_date":"2018-08-17"
               },
               {
               "vote_count":198,
               "id":500664,
               "video":false,
               "vote_average":7.6,
               "title":"Upgrade",
               "popularity":71.759,
               "poster_path":"\/adOzdWS35KAo21r9R4BuFCkLer6.jpg",
               "original_language":"en",
               "original_title":"Upgrade",
               "genre_ids":[
                            28,
                            53,
                            878
                            ],
               "backdrop_path":"\/22cUd4Yg5euCxIwWzXrL4m4otkU.jpg",
               "adult":false,
               "overview":"A brutal mugging leaves Grey Trace paralyzed in the hospital and his beloved wife dead. A billionaire inventor soon offers Trace a cure — an artificial intelligence implant called STEM that will enhance his body. Now able to walk, Grey finds that he also has superhuman strength and agility — skills he uses to seek revenge against the thugs who destroyed his life.",
               "release_date":"2018-06-01"
               },
               {
               "vote_count":323,
               "id":345887,
               "video":false,
               "vote_average":6.3,
               "title":"The Equalizer 2",
               "popularity":44.449,
               "poster_path":"\/cQvc9N6JiMVKqol3wcYrGshsIdZ.jpg",
               "original_language":"en",
               "original_title":"The Equalizer 2",
               "genre_ids":[
                            53,
                            28,
                            80
                            ],
               "backdrop_path":"\/z6KLDE72SxE1A8JcJTmmnWArOvR.jpg",
               "adult":false,
               "overview":"Robert McCall returns to deliver his special brand of vigilante justice -- but how far will he go when it's someone he loves?",
               "release_date":"2018-07-19"
               },
               {
               "vote_count":1963,
               "id":260513,
               "video":false,
               "vote_average":7.7,
               "title":"Incredibles 2",
               "popularity":43.938,
               "poster_path":"\/x1txcDXkcM65gl7w20PwYSxAYah.jpg",
               "original_language":"en",
               "original_title":"Incredibles 2",
               "genre_ids":[
                            28,
                            12,
                            16,
                            10751
                            ],
               "backdrop_path":"\/mabuNsGJgRuCTuGqjFkWe1xdu19.jpg",
               "adult":false,
               "overview":"Elastigirl springs into action to save the day, while Mr. Incredible faces his greatest challenge yet – taking care of the problems of his three children.",
               "release_date":"2018-06-14"
               },
               {
               "vote_count":72,
               "id":455207,
               "video":false,
               "vote_average":7.2,
               "title":"Crazy Rich Asians",
               "popularity":32.699,
               "poster_path":"\/gnTqi4nhIi1eesT5uYMmhEPGNih.jpg",
               "original_language":"en",
               "original_title":"Crazy Rich Asians",
               "genre_ids":[
                            35
                            ],
               "backdrop_path":"\/zeHB7aP46Xs3u4aFLuAq2GFeUGb.jpg",
               "adult":false,
               "overview":"An American-born Chinese economics professor accompanies her boyfriend to Singapore for his best friend's wedding, only to get thrust into the lives of Asia's rich and famous.",
               "release_date":"2018-08-15"
               },
               {
               "vote_count":6,
               "id":489999,
               "video":false,
               "vote_average":5.9,
               "title":"Searching",
               "popularity":29.082,
               "poster_path":"\/9N0T3BaHZNdUCcMZQIM3yMUFwEh.jpg",
               "original_language":"en",
               "original_title":"Searching",
               "genre_ids":[
                            18,
                            53
                            ],
               "backdrop_path":"\/1q5AauYD1szopz5qnd6qqxnpTHG.jpg",
               "adult":false,
               "overview":"After his 16-year-old daughter goes missing, a desperate father breaks into her laptop to look for clues to find her. A thriller that unfolds entirely on computer screens.",
               "release_date":"2018-08-24"
               },
               {
               "vote_count":224,
               "id":467938,
               "video":false,
               "vote_average":6.5,
               "title":"Revenge",
               "popularity":27.621,
               "poster_path":"\/aMv5ILxjzA9S930eLImSjfecETH.jpg",
               "original_language":"fr",
               "original_title":"Revenge",
               "genre_ids":[
                            28,
                            53,
                            27
                            ],
               "backdrop_path":"\/69RWfbPkGJKX231qorPebXznTAV.jpg",
               "adult":false,
               "overview":"Jen is enjoying a romantic getaway with her wealthy boyfriend, which is disrupted when his friends suddenly arrive. Tension mounts at the house until the situation culminates in an unexpected way.",
               "release_date":"2018-01-19"
               },
               {
               "vote_count":45,
               "id":454283,
               "video":false,
               "vote_average":5.3,
               "title":"Action Point",
               "popularity":25.116,
               "poster_path":"\/5lqJx0uNKrD1cEKgaqF1LBsLAoi.jpg",
               "original_language":"en",
               "original_title":"Action Point",
               "genre_ids":[
                            35,
                            18
                            ],
               "backdrop_path":"\/tmpY6f0Lf7Dnx6inByjvHby4AYf.jpg",
               "adult":false,
               "overview":"A daredevil designs and operates his own theme park with his friends.",
               "release_date":"2018-06-01"
               },
               {
               "vote_count":30,
               "id":439015,
               "video":false,
               "vote_average":4.4,
               "title":"Slender Man",
               "popularity":24.218,
               "poster_path":"\/huSncs4RyvQDBmHjBBYHSBYJbSJ.jpg",
               "original_language":"en",
               "original_title":"Slender Man",
               "genre_ids":[
                            27
                            ],
               "backdrop_path":"\/5K0fgMaJSdEvqSsS8e3Ez4TpvXR.jpg",
               "adult":false,
               "overview":"In a small town in Massachusetts, four high school girls perform a ritual in an attempt to debunk the lore of Slender Man. When one of the girls goes mysteriously missing, they begin to suspect that she is, in fact, his latest victim.",
               "release_date":"2018-08-10"
               },
               {
               "vote_count":51,
               "id":489931,
               "video":false,
               "vote_average":6.9,
               "title":"American Animals",
               "popularity":24.005,
               "poster_path":"\/aLbdKxgxuOPvs6CTlmzoOQ4Yg3j.jpg",
               "original_language":"en",
               "original_title":"American Animals",
               "genre_ids":[
                            18,
                            80
                            ],
               "backdrop_path":"\/3ccBOsbVpgwN9K5whd2UB9ACebG.jpg",
               "adult":false,
               "overview":"Lexington, Kentucky, 2004. Four young men attempt to execute one of the most audacious art heists in U. S. history.",
               "release_date":"2018-06-01"
               },
               {
               "vote_count":22,
               "id":347375,
               "video":false,
               "vote_average":4.9,
               "title":"Mile 22",
               "popularity":22.736,
               "poster_path":"\/2L8ehd95eSW9x7KINYtZmRkAlrZ.jpg",
               "original_language":"en",
               "original_title":"Mile 22",
               "genre_ids":[
                            28
                            ],
               "backdrop_path":"\/wWoCid7YUxiLhq3ZZT6CtFEDPXw.jpg",
               "adult":false,
               "overview":"A CIA field officer and an Indonesian police officer are forced to work together in confronting political corruption. An informant must be moved twenty-two miles to safety.",
               "release_date":"2018-08-10"
               },
               {
               "vote_count":103,
               "id":420814,
               "video":false,
               "vote_average":7.2,
               "title":"Christopher Robin",
               "popularity":20.488,
               "poster_path":"\/xR5w0he6czZkcAz459a4iPBqXGe.jpg",
               "original_language":"en",
               "original_title":"Christopher Robin",
               "genre_ids":[
                            16,
                            12,
                            35
                            ],
               "backdrop_path":"\/uDt8bQ4lGVlabEx5Gl2cPzvy6qz.jpg",
               "adult":false,
               "overview":"Working-class family man Christopher Robin encounters his childhood friend Winnie-the-Pooh, who helps him to rediscover the joys of life.",
               "release_date":"2018-08-02"
               },
               {
               "vote_count":0,
               "id":439079,
               "video":false,
               "vote_average":0,
               "title":"The Nun",
               "popularity":19.584,
               "poster_path":"\/sFC1ElvoKGdHJIWRpNB3xWJ9lJA.jpg",
               "original_language":"en",
               "original_title":"The Nun",
               "genre_ids":[
                            27,
                            9648,
                            53
                            ],
               "backdrop_path":"\/tfKxFPq4lel0bL80H0C6kGYKGEq.jpg",
               "adult":false,
               "overview":"When a young nun at a cloistered abbey in Romania takes her own life, a priest with a haunted past and a novitiate on the threshold of her final vows are sent by the Vatican to investigate. Together they uncover the order’s unholy secret. Risking not only their lives but their faith and their very souls, they confront a malevolent force in the form of the same demonic nun that first terrorized audiences in “The Conjuring 2,” as the abbey becomes a horrific battleground between the living and the damned.",
               "release_date":"2018-09-06"
               },
               {
               "vote_count":11,
               "id":346910,
               "video":false,
               "vote_average":0,
               "title":"The Predator",
               "popularity":18.247,
               "poster_path":"\/80R9mbC0cJhasCSUgy1OSpcaTDI.jpg",
               "original_language":"en",
               "original_title":"The Predator",
               "genre_ids":[
                            27,
                            878,
                            28,
                            12
                            ],
               "backdrop_path":"\/cCz1uWakOmxhIcoyX3U6Afyl5Ju.jpg",
               "adult":false,
               "overview":"From the outer reaches of space to the small-town streets of suburbia, the hunt comes home. Now, the universe’s most lethal hunters are stronger, smarter and deadlier than ever before, having genetically upgraded themselves with DNA from other species. When a young boy accidentally triggers their return to Earth, only a ragtag crew of ex-soldiers and a disgruntled science teacher can prevent the end of the human race.",
               "release_date":"2018-09-13"
               },
               {
               "vote_count":84,
               "id":502682,
               "video":false,
               "vote_average":6.2,
               "title":"Book Club",
               "popularity":16.426,
               "poster_path":"\/6ORGBbOA45pfKQXvntPf46NoFGO.jpg",
               "original_language":"en",
               "original_title":"Book Club",
               "genre_ids":[
                            35,
                            10749
                            ],
               "backdrop_path":"\/pozA8qiFEVY2A2ynM1mQwwhyQTW.jpg",
               "adult":false,
               "overview":"Four lifelong friends have their lives forever changed after reading Fifty Shades of Grey in their monthly book club.",
               "release_date":"2018-05-18"
               },
               {
               "vote_count":4547,
               "id":62,
               "video":false,
               "vote_average":8,
               "title":"2001: A Space Odyssey",
               "popularity":15.968,
               "poster_path":"\/90T7b2LIrL07ndYQBmSm09yqVEH.jpg",
               "original_language":"en",
               "original_title":"2001: A Space Odyssey",
               "genre_ids":[
                            878,
                            9648,
                            12
                            ],
               "backdrop_path":"\/pckdZ29bHj11hBsV3SbVVfmCB6C.jpg",
               "adult":false,
               "overview":"Humanity finds a mysterious object buried beneath the lunar surface and sets off to find its origins with the help of HAL 9000, the world's most advanced super computer.",
               "release_date":"1968-04-09"
               },
               {
               "vote_count":4,
               "id":412988,
               "video":false,
               "vote_average":3.8,
               "title":"The Happytime Murders",
               "popularity":15.545,
               "poster_path":"\/rWxkur51srfVnMn2QOFjE7mbq6h.jpg",
               "original_language":"en",
               "original_title":"The Happytime Murders",
               "genre_ids":[
                            28,
                            35,
                            80
                            ],
               "backdrop_path":"\/7xOgjJSIrKUu0ru3y96wc9GmXm3.jpg",
               "adult":false,
               "overview":"When the puppet cast of an '80s children's TV show begins to get murdered one by one, a disgraced LAPD detective-turned-private eye puppet takes on the case.",
               "release_date":"2018-08-17"
               },
               {
               "vote_count":100,
               "id":407449,
               "video":false,
               "vote_average":7.5,
               "title":"Lucky",
               "popularity":13.119,
               "poster_path":"\/fy2K8jqCV9rNC8fHx9muPJTNaqs.jpg",
               "original_language":"en",
               "original_title":"Lucky",
               "genre_ids":[
                            18
                            ],
               "backdrop_path":"\/josJUt5eVMANf06mxSKnJlwjELB.jpg",
               "adult":false,
               "overview":"Follows the journey of a 90-year-old atheist and the quirky characters that inhabit his off-the-map desert town. He finds himself at the precipice of life, thrust into a journey of self-exploration.",
               "release_date":"2017-09-29"
               },
               {
               "vote_count":202,
               "id":400535,
               "video":false,
               "vote_average":6.8,
               "title":"Sicario: Day of the Soldado",
               "popularity":12.659,
               "poster_path":"\/OdD7A0LgLXPjqzmfcEl9sTYVPo.jpg",
               "original_language":"en",
               "original_title":"Sicario: Day of the Soldado",
               "genre_ids":[
                            28,
                            80,
                            18,
                            53
                            ],
               "backdrop_path":"\/urMfgRUk0Kmf5p0KEJopAlqcyXm.jpg",
               "adult":false,
               "overview":"FBI agent Matt Graver teams up with operative Alejandro Gillick to prevent Mexican drug cartels from smuggling terrorists across the U.S. border.",
               "release_date":"2018-06-27"
               }
               ],
    "page":1,
    "total_results":282,
    "dates":{
        "maximum":"2018-09-17",
        "minimum":"2018-08-31"
    },
    "total_pages":15
}
